学习《R for Data Science》(7)——Relation Data | Website of ZhiYuan Wang
…
filtering joins，通过一个表中的观测筛选另一个表中的观测；

set operations，将观测视为集合的元素。

library(tidyverse)
library(nycflights13)

nycflights13数据集

flights查询航班信息

flights

## # A tibble: 336,776 x 19
##     year month   day dep_time sched_dep_time dep_delay arr_time
##    <int> <int> <int>    <int>          <int>     <dbl>    <int>
##  1  2013     1     1      517            515         2      830
##  2  2013     1     1      533            529         4      850
##  3  2013     1     1      542            540         2      923
##  4  2013     1     1      544            545        -1     1004
##  5  2013     1     1      554            600        -6      812
##  6  2013     1     1      554            558        -4      740
##  7  2013     1     1      555            600        -5      913
##  8  2013     1     1      557            600        -3      709
##  9  2013     1     1      557            600        -3      838
## 10  2013     1     1      558            600        -2      753
## # ... with 336,766 more rows, and 12 more variables: sched_arr_time <int>,
## #   arr_delay <dbl>, carrier <chr>, flight <int>, tailnum <chr>,
## #   origin <chr>, dest <chr>, air_time <dbl>, distance <dbl>, hour <dbl>,
## #   minute <dbl>, time_hour <dttm>
…
airports查询机场，用faa标识

airports

## # A tibble: 1,458 x 8
##    faa   name                   lat    lon   alt    tz dst   tzone        
##    <chr> <chr>                <dbl>  <dbl> <int> <dbl> <chr> <chr>        
##  1 04G   Lansdowne Airport     41.1  -80.6  1044    -5 A     America/New_~
##  2 06A   Moton Field Municip~  32.5  -85.7   264    -6 A     America/Chic~
##  3 06C   Schaumburg Regional   42.0  -88.1   801    -6 A     America/Chic~
##  4 06N   Randall Airport       41.4  -74.4   523    -5 A     America/New_~
##  5 09J   Jekyll Island Airpo~  31.1  -81.4    11    -5 A     America/New_~
##  6 0A9   Elizabethton Munici~  36.4  -82.2  1593    -5 A     America/New_~
##  7 0G6   Williams County Air~  41.5  -84.5   730    -5 A     America/New_~
##  8 0G7   Finger Lakes Region~  42.9  -76.8   492    -5 A     America/New_~
##  9 0P2   Shoestring Aviation~  39.8  -76.6  1000    -5 U     America/New_~
## 10 0S9   Jefferson County In~  48.1 -123.    108    -8 A     America/Los_~
## # ... with 1,448 more rows

planes查询飞机，用tailnum标识

planes

## # A tibble: 3,322 x 9
##    tailnum  year type      manufacturer  model  engines seats speed engine
##    <chr>   <int> <chr>     <chr>         <chr>    <int> <int> <int> <chr> 
##  1 N10156   2004 Fixed wi~ EMBRAER       EMB-1~       2    55    NA Turbo~
##  2 N102UW   1998 Fixed wi~ AIRBUS INDUS~ A320-~       2   182    NA Turbo~
##  3 N103US   1999 Fixed wi~ AIRBUS INDUS~ A320-~       2   182    NA Turbo~
##  4 N104UW   1999 Fixed wi~ AIRBUS INDUS~ A320-~       2   182    NA Turbo~
##  5 N10575   2002 Fixed wi~ EMBRAER       EMB-1~       2    55    NA Turbo~
##  6 N105UW   1999 Fixed wi~ AIRBUS INDUS~ A320-~       2   182    NA Turbo~
##  7 N107US   1999 Fixed wi~ AIRBUS INDUS~ A320-~       2   182    NA Turbo~
##  8 N108UW   1999 Fixed wi~ AIRBUS INDUS~ A320-~       2   182    NA Turbo~
##  9 N109UW   1999 Fixed wi~ AIRBUS INDUS~ A320-~       2   182    NA Turbo~
## 10 N110UW   1999 Fixed wi~ AIRBUS INDUS~ A320-~       2   182    NA Turbo~
## # ... with 3,312 more rows
…
如果一个表中没有一个显式化的主键，可以使用代理主键，以用来追踪过滤前后的数据差异。使用mutate()。

一个主键和一个外键构成一对关系,relation。

Mutating Joins

将两个表中的变量合并。首先通过键来匹配观测，再将变量从一个表复制到另一个表。

增加的变量默认放在最右边。创建一个窄表。

flights2 <- flights %>% 
  select(year:day, hour, origin, dest, tailnum, carrier)
flights2

## # A tibble: 336,776 x 8
##     year month   day  hour origin dest  tailnum carrier
##    <int> <int> <int> <dbl> <chr>  <chr> <chr>   <chr>  
##  1  2013     1     1     5 EWR    IAH   N14228  UA     
##  2  2013     1     1     5 LGA    IAH   N24211  UA     
##  3  2013     1     1     5 JFK    MIA   N619AA  AA     
##  4  2013     1     1     5 JFK    BQN   N804JB  B6     
##  5  2013     1     1     6 LGA    ATL   N668DN  DL     
##  6  2013     1     1     5 EWR    ORD   N39463  UA     
##  7  2013     1     1     6 EWR    FLL   N516JB  B6     
##  8  2013     1     1     6 LGA    IAD   N829AS  EV     
##  9  2013     1     1     6 JFK    MCO   N593JB  B6     
## 10  2013     1     1     6 LGA    ORD   N3ALAA  AA     
## # ... with 336,766 more rows

例如，想将航空公司全名添加到表中

flights2 %>%
  select(-origin, -dest) %>% 
  left_join(airlines, by = "carrier")

## # A tibble: 336,776 x 7
##     year month   day  hour tailnum carrier name                    
##    <int> <int> <int> <dbl> <chr>   <chr>   <chr>                   
##  1  2013     1     1     5 N14228  UA      United Air Lines Inc.   
##  2  2013     1     1     5 N24211  UA      United Air Lines Inc.   
##  3  2013     1     1     5 N619AA  AA      American Airlines Inc.  
##  4  2013     1     1     5 N804JB  B6      JetBlue Airways         
##  5  2013     1     1     6 N668DN  DL      Delta Air Lines Inc.    
##  6  2013     1     1     5 N39463  UA      United Air Lines Inc.   
##  7  2013     1     1     6 N516JB  B6      JetBlue Airways         
##  8  2013     1     1     6 N829AS  EV      ExpressJet Airlines Inc.
##  9  2013     1     1     6 N593JB  B6      JetBlue Airways         
## 10  2013     1     1     6 N3ALAA  AA      American Airlines Inc.  
## # ... with 336,766 more rows
…
筛选去往这十个机场的航班

flights %>% 
  filter(dest %in% top_dest$dest)

## # A tibble: 141,145 x 19
##     year month   day dep_time sched_dep_time dep_delay arr_time
##    <int> <int> <int>    <int>          <int>     <dbl>    <int>
##  1  2013     1     1      542            540         2      923
##  2  2013     1     1      554            600        -6      812
##  3  2013     1     1      554            558        -4      740
##  4  2013     1     1      555            600        -5      913
##  5  2013     1     1      557            600        -3      838
##  6  2013     1     1      558            600        -2      753
##  7  2013     1     1      558            600        -2      924
##  8  2013     1     1      558            600        -2      923
##  9  2013     1     1      559            559         0      702
## 10  2013     1     1      600            600         0      851
## # ... with 141,135 more rows, and 12 more variables: sched_arr_time <int>,
## #   arr_delay <dbl>, carrier <chr>, flight <int>, tailnum <chr>,
## #   origin <chr>, dest <chr>, air_time <dbl>, distance <dbl>, hour <dbl>,
## #   minute <dbl>, time_hour <dttm>

使用semi_join，保留在y中有记录的x

flights %>% 
  semi_join(top_dest)

## Joining, by = "dest"

## # A tibble: 141,145 x 19
##     year month   day dep_time sched_dep_time dep_delay arr_time
##    <int> <int> <int>    <int>          <int>     <dbl>    <int>
##  1  2013     1     1      542            540         2      923
##  2  2013     1     1      554            600        -6      812
##  3  2013     1     1      554            558        -4      740
##  4  2013     1     1      555            600        -5      913
##  5  2013     1     1      557            600        -3      838
##  6  2013     1     1      558            600        -2      753
##  7  2013     1     1      558            600        -2      924
##  8  2013     1     1      558            600        -2      923
##  9  2013     1     1      559            559         0      702
## 10  2013     1     1      600            600         0      851
## # ... with 141,135 more rows, and 12 more variables: sched_arr_time <int>,
## #   arr_delay <dbl>, carrier <chr>, flight <int>, tailnum <chr>,
## #   origin <chr>, dest <chr>, air_time <dbl>, distance <dbl>, hour <dbl>,
## #   minute <dbl>, time_hour <dttm>

anti_join是反向操作：去掉y中有记录的x。anti_join在检验被删掉记录时很有用。

下例找到了很多没有在planes里有记录的flights。

flights %>%
  anti_join(planes, by = "tailnum") %>%
  count(tailnum, sort = TRUE)

## # A tibble: 722 x 2
##    tailnum     n
##    <chr>   <int>
##  1 <NA>     2512
##  2 N725MQ    575
##  3 N722MQ    513
##  4 N723MQ    507
##  5 N713MQ    483
##  6 N735MQ    396
##  7 N0EGMQ    371
##  8 N534MQ    364
##  9 N542MQ    363
## 10 N531MQ    349
## # ... with 712 more rows
…
